cause_short,1791,1792,1794,1797,1804,1806,1807,1808,1810,1811,1814,1816,1818,1823,1824,1825,1827,1828,1830,1832,1833,1834,1836,1837,1838,1839,1840,1841,1842,1843,1844,1845,1847,1848,1849,1850,1851,1852,1853,1854,1855,1856,1857,1858,1859,1860,1861,1862,1863,1864,1865,1866,1867,1868,1869,1870,1871,1872,1873,1874,1875,1876,1877,1878,1879,1880,1881,1882,1883,1884,1885,1886,1887,1888,1889,1890,1891,1892,1893,1894,1895,1896,1897,1898,1899,1900,1901,1902,1903,1904,1905,1906,1907,1908,1909,1910,1911,1912,1913,1914,1915,1916,1917,1918,1919,1920,1921,1922,1923,1924,1925,1926,1927,1928,1929,1930,1931,1932,1933,1934,1935,1936,1937,1938,1939,1940,1941,1942,1943,1944,1945,1946,1947,1948,1949,1950,1951,1952,1953,1954,1955,1956,1957,1958,1959,1960,1961,1962,1963,1964,1965,1966,1967,1968,1969,1970,1971,1972,1973,1974,1975,1976,1977,1978,1979,1980,1981,1982,1983,1984,1985,1986,1987,1988,1989,1990,1991,1992,1993,1994,1995,1996,1997,1998,1999,2000,2001,2002,2003,2004,2005,2006,2007,2008,2009,2010,2011,2012,2013,2014,2015,2016
Assault,,,,,,,,1,,,,2,3,4,,5,6,,,7,8,,,14,19,21,,23,,,25,,,,26,28,31,32,33,,34,,36,,,37,38,,41,44,,48,,,50,56,59,61,64,68,70,75,77,78,82,84,86,91,92,95,96,100,104,106,107,110,112,115,116,118,120,123,128,131,136,142,146,147,152,155,160,164,166,170,172,174,178,184,188,192,196,205,210,220,228,234,240,247,249,257,260,264,269,272,286,291,293,299,302,310,315,319,325,335,340,349,350,356,359,363,367,370,375,383,385,387,389,393,396,399,,400,404,407,,408,410,411,414,416,420,424,430,431,436,446,456,460,465,469,473,477,485,489,491,492,500,506,509,513,519,524,528,533,538,543,544,549,555,558,562,565,570,572,575,578,580,584,587,,,588,589,593,594,601,606,607,,610,613,
Automobile accident,,,,,,,,,,,,,,,,,,,,,,,,,,,,,,,,,,,,,,,,,,,,,,,,,,,,,,,,,,,,,,,,,,,,,,,,,,,,,,,,,,,,,1,2,,,,3,,4,,,,5,7,,11,15,16,19,23,27,35,42,50,55,65,80,87,95,115,131,154,164,186,204,220,244,261,279,303,326,346,358,385,399,405,417,425,443,458,481,493,509,540,558,578,594,615,635,654,674,695,719,746,774,800,830,852,878,904,937,958,987,1013,1045,1076,1102,1116,1132,1156,1183,1204,1226,1248,1270,1294,1322,1345,1373,1403,1434,1463,1483,1503,1529,1557,1590,1623,1651,1691,1738,1777,1814,1848,1885,1926,1960,1994,2030,2080,2116,2150,2195,2230,2254,2283,2311,2339,2348
Gunfire,2,3,4,5,6,,7,9,10,11,12,13,,,,14,,15,16,,,,,21,22,30,31,33,34,35,37,39,42,43,44,48,51,54,55,60,69,75,86,95,104,111,114,118,123,136,147,161,179,197,223,237,266,290,309,330,352,376,398,443,468,497,541,580,617,658,716,755,788,841,885,936,983,1056,1111,1169,1231,1279,1314,1381,1450,1519,1602,1697,1780,1850,1919,1993,2088,2193,2278,2378,2509,2609,2712,2816,2937,3063,3188,3319,3506,3679,3885,4069,4242,4440,4617,4800,4981,5151,5309,5502,5690,5877,6036,6182,6310,6408,6498,6590,6654,6717,6790,6842,6888,6934,6988,7055,7128,7190,7245,7298,7350,7409,7467,7533,7576,7613,7671,7714,7758,7808,7867,7925,7986,8048,8111,8175,8261,8336,8437,8548,8691,8813,8957,9097,9241,9346,9444,9546,9659,9764,9857,9951,10032,10106,10181,10259,10335,10416,10486,10546,10619,10683,10761,10849,10919,10983,11055,11121,11169,11222,11288,11346,11396,11455,11510,11562,11631,11673,11724,11786,11856,11910,11945,11997,12040,12067
Gunfire (Accidental),,,,,,,,,,,,,,,,,,,,,,,,,,,,,,,,,,,,,,,,,,1,,2,,,,,,,,,,,3,,5,,6,,7,8,9,11,,12,13,15,16,19,,20,22,23,,25,29,32,33,36,40,,44,45,48,51,56,59,63,74,78,82,87,96,101,,111,,117,123,127,130,138,143,146,152,160,170,181,187,199,205,215,222,229,234,240,247,250,255,262,271,276,283,285,,289,296,300,302,306,309,315,318,320,321,322,326,330,332,334,336,337,341,342,346,349,352,353,355,359,361,369,377,381,387,392,400,413,419,428,433,437,442,451,456,462,467,472,480,485,493,500,508,512,517,518,521,528,530,533,536,537,539,541,545,551,554,557,561,569,572,576,582,585,587,593,595,597,599,601,604
Heart attack,,,,,,,,,,,,,,,,,,,,,,,,,,,,,,,,,,,,,,,,,,,,,,,,,,,,,,1,,,,,,2,3,4,,,,,,5,6,,,,,,7,8,9,10,,12,13,,,,,,,14,16,18,21,23,24,25,26,,27,28,,,29,,,,30,33,34,35,37,39,42,44,46,48,52,57,59,62,65,72,75,82,85,92,97,101,106,109,113,121,126,133,134,140,152,157,164,168,176,183,195,208,217,223,230,240,251,265,278,289,298,311,330,344,364,372,386,395,411,431,445,456,464,482,497,512,527,534,545,560,571,579,593,612,627,636,645,662,669,677,695,711,726,743,765,773,779,790,797,813,833,849,861,874,884,903,916,926,936,956,973,977
Motorcycle accident,,,,,,,,,,,,,,,,,,,,,,,,,,,,,,,,,,,,,,,,,,,,,,,,,,,,,,,,,,,,,,,,,,,,,,,,,,,,,,,,,,,,,,,,,,,,,,,,,1,2,3,6,9,17,22,28,32,41,57,77,103,125,157,181,213,237,271,319,343,377,404,433,467,488,514,544,561,578,594,608,620,632,649,664,672,683,690,702,718,727,739,749,756,764,774,782,790,800,814,821,830,838,845,858,868,878,887,896,903,904,910,916,923,926,929,931,938,943,947,950,959,963,966,973,977,982,988,995,997,1003,1004,1012,1014,1018,1022,1026,1032,1043,1050,1056,1064,1072,1076,1084,1092,1101,1104,1109,1114,1119,1124,1128,1131,1134
Stabbed,,,,,,1,,2,,,,,,3,4,,,,,,,6,10,,,,11,,,12,,14,,,15,,16,18,21,25,27,29,30,35,,37,44,46,47,,48,49,52,53,54,59,,60,62,64,,67,69,70,71,73,76,,,79,81,84,87,89,90,92,98,102,103,105,106,,108,110,113,116,117,118,123,124,127,130,135,140,143,147,149,153,157,158,160,164,172,174,176,177,182,185,186,189,191,193,196,199,200,204,,205,209,214,220,225,230,233,,235,236,243,247,,249,254,257,260,263,265,268,271,273,276,277,278,,279,,282,,283,284,,290,293,294,295,298,302,311,320,332,338,340,348,352,357,367,375,380,385,393,400,403,,409,,415,420,422,424,425,426,430,431,436,,438,440,,443,444,446,447,448,,450,,,453,458,461,463,464,465
Struck by vehicle,,,,,,,,,,,,,,,,,,,,,,,,,,,,,,,,,,,,,,,,,,,,,,,,,,,,,,,,,,,,,,,,,,,,,,,,,,,,,,,,,,,,,1,,2,,,,4,,,6,,,7,9,12,13,17,24,26,29,35,39,45,49,55,62,71,76,86,90,105,123,144,155,160,173,186,196,212,221,225,229,240,249,,253,258,266,269,279,284,290,295,300,306,322,331,336,340,346,356,363,369,378,386,395,404,406,414,422,425,432,443,454,461,474,486,487,493,506,512,523,533,547,560,573,585,595,611,628,639,648,654,660,662,672,681,682,697,707,716,727,738,744,752,761,772,781,793,806,816,823,831,838,848,857,863,868
Vehicle pursuit,,,,,,,,,,,,,,,,,,,,,,,,,,,,,,,,,,,,,,,,,,,,,,,,,,,,,,,,,,,,,,,,,,,,,,,,,,,,,,,,,,,,,,,,,,,,,,,,,,1,2,,,3,4,5,8,11,16,20,23,28,39,47,58,69,78,86,90,99,109,112,118,124,132,136,139,148,150,155,158,162,166,168,172,178,181,183,186,193,198,207,213,223,232,238,246,252,258,268,278,286,292,305,314,329,335,349,356,368,375,386,393,402,408,416,422,428,430,437,446,454,464,465,474,478,487,492,498,502,508,516,527,533,535,537,543,548,553,558,571,577,582,586,592,595,598,602,606,611,615,620,625,627
Vehicular assault,,,,,,,,,,,,,,,,,,,,,,,,,,,,,,,,,,,,,,,,,,,,,,,,,,,,,,,,,,,,,,,,,,,,,,,,,,,,,,,,,,,,,,,,,,,,,,,,,,,,2,5,,8,11,,14,21,24,27,32,37,41,45,54,61,70,80,86,90,97,103,114,124,127,131,136,147,154,160,164,166,174,178,182,184,189,194,198,202,207,214,220,224,234,244,248,252,259,264,272,277,285,294,306,316,325,329,337,345,360,371,388,408,419,432,446,464,482,494,501,515,528,538,547,567,583,591,610,625,631,639,650,661,671,680,694,712,724,733,751,768,785,795,810,820,834,846,857,862,872,880,888
